%YAML 1.1
%TAG !u! tag:unity3d.com,2011:
--- !u!114 &11400000
MonoBehaviour:
  m_ObjectHideFlags: 0
  m_CorrespondingSourceObject: {fileID: 0}
  m_PrefabInstance: {fileID: 0}
  m_PrefabAsset: {fileID: 0}
  m_GameObject: {fileID: 0}
  m_Enabled: 1
  m_EditorHideFlags: 0
  m_Script: {fileID: 11500000, guid: 468a46d0ae32c3544b7d98094e6448a9, type: 3}
  m_Name: AddressableAssetSettings
  m_EditorClassIdentifier: 
  m_DefaultGroup: b34857603bee42e4fa9c5ba279268f5a
  m_groups: []
  m_GroupAssets:
  - {fileID: 11400000, guid: 694c2a5870b5e8d4481cfd5b7c18c59c, type: 2}
  - {fileID: 11400000, guid: aa09676b28fb84e48bf6916815b6add8, type: 2}
  m_BuildSettings:
    m_CompileScriptsInVirtualMode: 0
    m_CleanupStreamingAssetsAfterBuilds: 1
    m_LogResourceManagerExceptions: 0
    m_BundleBuildPath: Temp/com.unity.addressables/AssetBundles
  m_ProfileSettings:
    m_Profiles:
    - m_InheritedParent: 
      m_Id: 51b2358217f508b4fabf17ec001e0b82
      m_ProfileName: Default
      m_Values:
      - m_Id: eefdcd874e5a1a04e8543984bf7a03eb
        m_Value: '[UnityEditor.EditorUserBuildSettings.activeBuildTarget]'
      - m_Id: de8076d279bbdf746a4c017feb91ef54
        m_Value: Assets/StreamingAssets/com.unity.addressables/[BuildTarget]
      - m_Id: 6c16201da338df44cb8c464248c4d62a
        m_Value: '{UnityEngine.AddressableAssets.Addressables.RuntimePath}/[BuildTarget]'
      - m_Id: bcf19e810422fe84db56029cd8d4f143
        m_Value: ServerData/[BuildTarget]
      - m_Id: c823b8528e5b7e34ba252ebeb08637df
        m_Value: http://localhost/[BuildTarget]
    m_ProfileEntryNames:
    - m_Id: eefdcd874e5a1a04e8543984bf7a03eb
      m_Name: BuildTarget
      m_InlineUsage: 0
    - m_Id: de8076d279bbdf746a4c017feb91ef54
      m_Name: LocalBuildPath
      m_InlineUsage: 0
    - m_Id: 6c16201da338df44cb8c464248c4d62a
      m_Name: LocalLoadPath
      m_InlineUsage: 0
    - m_Id: bcf19e810422fe84db56029cd8d4f143
      m_Name: RemoteBuildPath
      m_InlineUsage: 0
    - m_Id: c823b8528e5b7e34ba252ebeb08637df
      m_Name: RemoteLoadPath
      m_InlineUsage: 0
    m_ProfileVersion: 1
  m_LabelTable:
    m_LabelNames:
    - default
  m_SchemaTemplates:
  - m_DisplayName: Packed Assets
    m_Description: Pack assets into asset bundles.
    m_SchemaTypes:
    - m_AssemblyName: Unity.Addressables.Editor, Version=0.0.0.0, Culture=neutral,
        PublicKeyToken=null
      m_ClassName: UnityEditor.AddressableAssets.BundledAssetGroupSchema
    - m_AssemblyName: Unity.Addressables.Editor, Version=0.0.0.0, Culture=neutral,
        PublicKeyToken=null
      m_ClassName: UnityEditor.AddressableAssets.ContentUpdateGroupSchema
  m_InitializationObjects: []
  m_ActivePlayerDataBuilderIndex: 3
  m_ActivePlayModeDataBuilderIndex: 0
  m_DataBuilders:
  - {fileID: 11400000, guid: fb868b6c6ec759d45b779b10b331cfdb, type: 2}
  - {fileID: 11400000, guid: b1a68df05b6629846b91adc7b993a901, type: 2}
  - {fileID: 11400000, guid: 5f3932726b979f84c835c9891b459143, type: 2}
  - {fileID: 11400000, guid: 5507da72a62ea2a4f85adddbb726446b, type: 2}
  m_ActiveProfileId: 51b2358217f508b4fabf17ec001e0b82
  m_HostingServicesManager:
    m_HostingServiceInfos: []
    m_Settings: {fileID: 11400000}
    m_NextInstanceId: 0
    m_RegisteredServiceTypeRefs: []
